…
Now that I've looked at user data, I move on to tweet data.


```r
tibble::as_tibble(
  intersect(x = base::names(GoldOpen), 
                                  y = base::names(rtweet::tweets_data(GoldOpen))))
```

```
## # A tibble: 68 x 1
##    value               
##    <chr>               
##  1 user_id             
##  2 status_id           
##  3 created_at          
##  4 screen_name         
##  5 text                
##  6 source              
##  7 display_text_width  
##  8 reply_to_status_id  
##  9 reply_to_user_id    
## 10 reply_to_screen_name
## # ... with 58 more rows
```
…
